[gd_scene load_steps=8 format=2]

[ext_resource path="res://Puzzle/canos/images/particles/star_06.png" type="Texture" id=1]
[ext_resource path="res://Puzzle/canos/scripts/instances/Star_Particles.gd" type="Script" id=2]

[sub_resource type="Gradient" id=4]
offsets = PoolRealArray( 0, 0.00408163, 1 )
colors = PoolColorArray( 0, 0, 0, 1, 0.939453, 1, 0, 1, 0, 0.220703, 1, 1 )

[sub_resource type="GradientTexture" id=5]
gradient = SubResource( 4 )

[sub_resource type="Curve" id=2]
_data = [ Vector2( 0, 0.218016 ), 0.0, 0.0, 0, 0, Vector2( 1, 1 ), 0.0, 0.0, 0, 0 ]

[sub_resource type="CurveTexture" id=3]
curve = SubResource( 2 )

[sub_resource type="ParticlesMaterial" id=1]
flag_disable_z = true
spread = 180.0
gravity = Vector3( 0, 0, 0 )
initial_velocity = 200.0
orbit_velocity = 0.0
orbit_velocity_random = 0.0
scale_curve = SubResource( 3 )
color_ramp = SubResource( 5 )

[node name="Particles2D" type="Particles2D"]
scale = Vector2( 0.2, 0.2 )
lifetime = 1.75
explosiveness = 0.7
process_material = SubResource( 1 )
texture = ExtResource( 1 )
script = ExtResource( 2 )
