[gd_scene load_steps=2 format=2]

[ext_resource path="res://Puzzle/rotas/Scripts/bloom.gd" type="Script" id=1]

[node name="Bloom" type="Node2D"]
modulate = Color( 1, 1, 1, 0 )
script = ExtResource( 1 )
