[gd_scene load_steps=2 format=2]

[ext_resource path="res://Puzzle/rotas/Scenes/level_button.tscn" type="PackedScene" id=1]

[node name="LevelSet" type="Node2D"]

[node name="Level1" parent="." instance=ExtResource( 1 )]
position = Vector2( 128, 320 )
scale = Vector2( 0.8, 0.8 )
select_screen_pos = Vector2( 128, 320 )

[node name="Level2" parent="." instance=ExtResource( 1 )]
position = Vector2( 384, 320 )
scale = Vector2( 0.8, 0.8 )
select_screen_pos = Vector2( 384, 320 )

[node name="Level3" parent="." instance=ExtResource( 1 )]
position = Vector2( 640, 320 )
scale = Vector2( 0.8, 0.8 )
select_screen_pos = Vector2( 640, 320 )

[node name="Level4" parent="." instance=ExtResource( 1 )]
position = Vector2( 896, 320 )
scale = Vector2( 0.8, 0.8 )
select_screen_pos = Vector2( 896, 320 )
