[gd_scene load_steps=2 format=2]

[ext_resource path="res://Puzzle/Tubos de teste/scripts/PortionScene.gd" type="Script" id=1]

[node name="PortionScene" type="ColorRect"]
mouse_filter = 1
size_flags_horizontal = 3
size_flags_vertical = 3
script = ExtResource( 1 )
