[gd_scene load_steps=6 format=2]

[ext_resource path="res://Puzzle/caixas/Assets/player.png" type="Texture" id=1]
[ext_resource path="res://Puzzle/caixas/Scenes/Player.gd" type="Script" id=2]

[sub_resource type="RectangleShape2D" id=1]
extents = Vector2( 7.50136, 7.15485 )

[sub_resource type="Animation" id=2]
length = 0.001
tracks/0/type = "value"
tracks/0/path = NodePath("../player:position")
tracks/0/interp = 1
tracks/0/loop_wrap = true
tracks/0/imported = false
tracks/0/enabled = true
tracks/0/keys = {
"times": PoolRealArray( 0 ),
"transitions": PoolRealArray( 1 ),
"update": 0,
"values": [ Vector2( 0, 0 ) ]
}

[sub_resource type="Animation" id=3]
resource_name = "walk"
length = 0.1
step = 0.05
tracks/0/type = "value"
tracks/0/path = NodePath("../player:position")
tracks/0/interp = 1
tracks/0/loop_wrap = true
tracks/0/imported = false
tracks/0/enabled = true
tracks/0/keys = {
"times": PoolRealArray( 0, 0.05, 0.1 ),
"transitions": PoolRealArray( 1, 1, 1 ),
"update": 0,
"values": [ Vector2( 0, 0 ), Vector2( 0, -4 ), Vector2( 0, 0 ) ]
}

[node name="KinematicBody2D" type="KinematicBody2D"]
script = ExtResource( 2 )

[node name="player" type="Sprite" parent="."]
texture = ExtResource( 1 )
centered = false

[node name="CollisionShape2D" type="CollisionShape2D" parent="."]
position = Vector2( 8, 8 )
shape = SubResource( 1 )

[node name="RayCast2D" type="RayCast2D" parent="."]
position = Vector2( 8, 8 )
cast_to = Vector2( 0, 16 )

[node name="Tween" type="Tween" parent="."]

[node name="AnimationPlayer" type="AnimationPlayer" parent="."]
root_node = NodePath("../Tween")
anims/RESET = SubResource( 2 )
anims/walk = SubResource( 3 )
