[gd_resource type="ShaderMaterial" load_steps=3 format=2]

[ext_resource path="res://Puzzle/caminhos/source/assets/shaders/paths.gdshader" type="Shader" id=1]

[sub_resource type="ShaderMaterial" id=7]
shader = ExtResource( 1 )

[resource]
next_pass = SubResource( 7 )
shader = ExtResource( 1 )
