[gd_resource type="ShaderMaterial" load_steps=2 format=2]

[ext_resource path="res://Puzzle/caminhos/source/assets/shaders/ring-widget.gdshader" type="Shader" id=1]

[resource]
resource_local_to_scene = true
shader = ExtResource( 1 )
shader_param/color = Color( 1, 0.46875, 0, 1 )
shader_param/brightness = 1.1
shader_param/alpha = 1.0
