[gd_scene format=2]

[node name="Credits" type="Control"]
anchor_right = 1.0
anchor_bottom = 1.0

[node name="Credits" type="Label" parent="."]
anchor_left = 0.5
anchor_top = 0.1
anchor_right = 0.5
anchor_bottom = 0.1
grow_horizontal = 2
grow_vertical = 2
text = "CREDITS"
align = 1
valign = 1
__meta__ = {
"_edit_use_anchors_": false
}

[node name="Ayrton" type="Label" parent="."]
anchor_left = 0.5
anchor_top = 0.25
anchor_right = 0.5
anchor_bottom = 0.25
grow_horizontal = 2
grow_vertical = 2
text = "Ayrton Sato"
align = 1
valign = 1

[node name="Ayrton2" type="Label" parent="."]
anchor_left = 0.5
anchor_top = 0.3
anchor_right = 0.5
anchor_bottom = 0.3
grow_horizontal = 2
grow_vertical = 2
text = "Programming, sound effects"
align = 1
valign = 1
__meta__ = {
"_edit_use_anchors_": false
}

[node name="Rafael" type="Label" parent="."]
anchor_left = 0.5
anchor_top = 0.4
anchor_right = 0.5
anchor_bottom = 0.4
grow_horizontal = 2
grow_vertical = 2
text = "Rafael Bordoni"
align = 1
valign = 1

[node name="Rafael2" type="Label" parent="."]
anchor_left = 0.5
anchor_top = 0.45
anchor_right = 0.5
anchor_bottom = 0.45
grow_horizontal = 2
grow_vertical = 2
text = "Game design, graphics, programming"
align = 1
valign = 1
__meta__ = {
"_edit_use_anchors_": false
}

[node name="Music" type="Label" parent="."]
anchor_left = 0.5
anchor_top = 0.55
anchor_right = 0.5
anchor_bottom = 0.55
grow_horizontal = 2
grow_vertical = 2
text = "Free music by:"
align = 1
valign = 1
__meta__ = {
"_edit_use_anchors_": false
}

[node name="Music2" type="Label" parent="."]
anchor_left = 0.5
anchor_top = 0.58
anchor_right = 0.5
anchor_bottom = 0.58
grow_horizontal = 2
text = "Ancient Fairytale, Moon Chime Remix,
Painful Vacation and Samsara
by Oddroom on opengameart.org,
all under creative commons license."
align = 1
valign = 1
__meta__ = {
"_edit_use_anchors_": false
}
