[gd_scene load_steps=14 format=2]

[ext_resource path="res://Puzzle/caminhos/source/assets/textures/audio-button.png" type="Texture" id=1]
[ext_resource path="res://Puzzle/caminhos/source/assets/scripts/ui-audio.gd" type="Script" id=2]
[ext_resource path="res://Puzzle/caminhos/source/assets/textures/audio-bar-grabber.png" type="Texture" id=3]
[ext_resource path="res://Puzzle/caminhos/source/assets/textures/audio-bar-slider.png" type="Texture" id=4]
[ext_resource path="res://Puzzle/caminhos/source/assets/scripts/ui-display.gd" type="Script" id=6]
[ext_resource path="res://Puzzle/caminhos/source/assets/textures/display-button.png" type="Texture" id=7]
[ext_resource path="res://Puzzle/caminhos/source/assets/scripts/ui-debug.gd" type="Script" id=8]
[ext_resource path="res://Puzzle/caminhos/source/assets/scripts/ui-button.gd" type="Script" id=10]

[sub_resource type="StyleBoxEmpty" id=1]

[sub_resource type="StyleBoxTexture" id=3]
texture = ExtResource( 4 )
region_rect = Rect2( 0, 0, 128, 16 )

[sub_resource type="StyleBoxEmpty" id=4]

[sub_resource type="StyleBoxEmpty" id=5]

[sub_resource type="StyleBoxEmpty" id=8]

[node name="SettingsGUI" type="Control"]
anchor_right = 1.0
anchor_bottom = 1.0
mouse_filter = 2

[node name="VBoxContainer" type="VBoxContainer" parent="."]
anchor_left = 0.01
anchor_top = 0.01
anchor_right = 0.01
anchor_bottom = 0.01

[node name="DisplayControls" type="TextureButton" parent="VBoxContainer"]
margin_right = 48.0
margin_bottom = 48.0
texture_normal = ExtResource( 7 )
script = ExtResource( 6 )

[node name="Button" type="Button" parent="VBoxContainer/DisplayControls"]
visible = false
margin_left = 59.0
margin_right = 242.0
margin_bottom = 50.0
custom_styles/focus = SubResource( 1 )
text = "Fullscreen"
flat = true
align = 0
__meta__ = {
"_edit_use_anchors_": false
}

[node name="AudioControls" type="TextureButton" parent="VBoxContainer"]
margin_top = 52.0
margin_right = 48.0
margin_bottom = 100.0
shortcut_in_tooltip = false
texture_normal = ExtResource( 1 )
script = ExtResource( 2 )
__meta__ = {
"_edit_use_anchors_": false
}

[node name="HSlider" type="HSlider" parent="VBoxContainer/AudioControls"]
visible = false
margin_left = 56.0
margin_top = 12.0
margin_right = 195.0
margin_bottom = 36.0
custom_icons/grabber_disabled = ExtResource( 3 )
custom_icons/grabber_highlight = ExtResource( 3 )
custom_icons/grabber = ExtResource( 3 )
custom_styles/slider = SubResource( 3 )
custom_styles/grabber_area_highlight = SubResource( 4 )
custom_styles/grabber_area = SubResource( 5 )
max_value = 1.0
step = 0.05
__meta__ = {
"_edit_use_anchors_": false
}

[node name="Debug" type="VBoxContainer" parent="."]
anchor_left = 0.99
anchor_top = 0.01
anchor_right = 0.99
anchor_bottom = 0.01
grow_horizontal = 0
script = ExtResource( 8 )

[node name="Level" type="Label" parent="Debug"]
visible = false
margin_right = 143.0
margin_bottom = 33.0
text = "Level 69"
align = 2

[node name="FPS" type="Label" parent="Debug"]
visible = false
margin_right = 143.0
margin_bottom = 33.0
text = "60 fps"
align = 2

[node name="ResetButton" type="Button" parent="Debug"]
visible = false
margin_right = 191.0
margin_bottom = 39.0
custom_colors/font_color_disabled = Color( 1, 1, 1, 1 )
custom_colors/font_color = Color( 1, 1, 1, 1 )
custom_colors/font_color_hover = Color( 1, 1, 1, 1 )
custom_colors/font_color_pressed = Color( 1, 1, 1, 1 )
custom_styles/focus = SubResource( 8 )
text = "    Reset Level    "
flat = true
script = ExtResource( 10 )
unfocus_text = "    Reset Level    "
focus_text = "- Reset Level -"

[connection signal="pressed" from="VBoxContainer/DisplayControls" to="VBoxContainer/DisplayControls" method="_on_pressed"]
[connection signal="pressed" from="VBoxContainer/DisplayControls/Button" to="VBoxContainer/DisplayControls" method="_on_Button_pressed"]
[connection signal="pressed" from="VBoxContainer/AudioControls" to="VBoxContainer/AudioControls" method="_on_pressed"]
[connection signal="value_changed" from="VBoxContainer/AudioControls/HSlider" to="VBoxContainer/AudioControls" method="_on_HSlider_value_changed"]
[connection signal="focus_entered" from="Debug/ResetButton" to="Debug/ResetButton" method="_on_focus_entered"]
[connection signal="focus_exited" from="Debug/ResetButton" to="Debug/ResetButton" method="_on_focus_exited"]
[connection signal="mouse_entered" from="Debug/ResetButton" to="Debug/ResetButton" method="_on_focus_entered"]
[connection signal="mouse_exited" from="Debug/ResetButton" to="Debug/ResetButton" method="_on_focus_exited"]
[connection signal="pressed" from="Debug/ResetButton" to="Debug" method="_on_ResetButton_pressed"]
