[gd_scene load_steps=30 format=2]

[ext_resource path="res://Puzzle/caminhos/source/assets/nodes/levels/base-level.tscn" type="PackedScene" id=1]
[ext_resource path="res://Puzzle/caminhos/source/assets/shaders/one-color.gdshader" type="Shader" id=2]
[ext_resource path="res://Puzzle/caminhos/source/assets/nodes/paths/path-straight.tscn" type="PackedScene" id=3]
[ext_resource path="res://Puzzle/caminhos/source/assets/nodes/paths/path-curve.tscn" type="PackedScene" id=4]
[ext_resource path="res://Puzzle/caminhos/source/assets/shaders/ring-widget.gdshader" type="Shader" id=5]
[ext_resource path="res://Puzzle/caminhos/source/assets/nodes/paths/path-3-intersection.tscn" type="PackedScene" id=6]
[ext_resource path="res://Puzzle/caminhos/source/assets/nodes/particles/bg-particles-3.tscn" type="PackedScene" id=7]
[ext_resource path="res://Puzzle/caminhos/source/assets/nodes/particles/bg-particles-2.tscn" type="PackedScene" id=8]
[ext_resource path="res://Puzzle/caminhos/source/assets/nodes/particles/bg-particles-1.tscn" type="PackedScene" id=9]
[ext_resource path="res://Puzzle/caminhos/source/assets/nodes/particles/falling-stars.tscn" type="PackedScene" id=10]
[ext_resource path="res://Puzzle/caminhos/source/assets/nodes/interactables/wall.tscn" type="PackedScene" id=11]
[ext_resource path="res://Puzzle/caminhos/source/assets/nodes/paths/path-3-2-intersection.tscn" type="PackedScene" id=12]
[ext_resource path="res://Puzzle/caminhos/source/assets/nodes/paths/path-end.tscn" type="PackedScene" id=13]

[sub_resource type="ShaderMaterial" id=1]
resource_local_to_scene = true
shader = ExtResource( 2 )
shader_param/color = Color( 0, 0, 1, 1 )
shader_param/brightness = 0.6
shader_param/alpha = 1.0

[sub_resource type="ShaderMaterial" id=2]
resource_local_to_scene = true
shader = ExtResource( 2 )
shader_param/color = Color( 0, 0, 1, 1 )
shader_param/brightness = 0.6
shader_param/alpha = 1.0

[sub_resource type="ShaderMaterial" id=3]
resource_local_to_scene = true
shader = ExtResource( 2 )
shader_param/color = Color( 0, 0, 1, 1 )
shader_param/brightness = 0.6
shader_param/alpha = 1.0

[sub_resource type="ShaderMaterial" id=4]
resource_local_to_scene = true
shader = ExtResource( 2 )
shader_param/color = Color( 0, 0, 1, 1 )
shader_param/brightness = 0.6
shader_param/alpha = 1.0

[sub_resource type="ShaderMaterial" id=5]
resource_local_to_scene = true
shader = ExtResource( 2 )
shader_param/color = Color( 1, 0, 0, 1 )
shader_param/brightness = 0.6
shader_param/alpha = 1.0

[sub_resource type="ShaderMaterial" id=6]
resource_local_to_scene = true
shader = ExtResource( 2 )
shader_param/color = Color( 1, 0, 0, 1 )
shader_param/brightness = 0.6
shader_param/alpha = 1.0

[sub_resource type="ShaderMaterial" id=7]
resource_local_to_scene = true
shader = ExtResource( 2 )
shader_param/color = Color( 1, 0, 0, 1 )
shader_param/brightness = 0.6
shader_param/alpha = 1.0

[sub_resource type="ShaderMaterial" id=8]
resource_local_to_scene = true
shader = ExtResource( 2 )
shader_param/color = Color( 1, 0, 0, 1 )
shader_param/brightness = 0.6
shader_param/alpha = 1.0

[sub_resource type="ShaderMaterial" id=9]
resource_local_to_scene = true
shader = ExtResource( 2 )
shader_param/color = Color( 0, 1, 0, 1 )
shader_param/brightness = 0.6
shader_param/alpha = 1.0

[sub_resource type="ShaderMaterial" id=10]
resource_local_to_scene = true
shader = ExtResource( 2 )
shader_param/color = Color( 0, 1, 0, 1 )
shader_param/brightness = 0.6
shader_param/alpha = 1.0

[sub_resource type="ShaderMaterial" id=11]
resource_local_to_scene = true
shader = ExtResource( 2 )
shader_param/color = Color( 0, 1, 0, 1 )
shader_param/brightness = 0.6
shader_param/alpha = 1.0

[sub_resource type="ShaderMaterial" id=12]
resource_local_to_scene = true
shader = ExtResource( 2 )
shader_param/color = Color( 0, 1, 0, 1 )
shader_param/brightness = 0.6
shader_param/alpha = 1.0

[sub_resource type="ShaderMaterial" id=13]
resource_local_to_scene = true
shader = ExtResource( 5 )
shader_param/color = Color( 1, 0.46875, 0, 1 )
shader_param/brightness = 0.6
shader_param/alpha = 1.0

[sub_resource type="ShaderMaterial" id=14]
resource_local_to_scene = true
shader = ExtResource( 5 )
shader_param/color = Color( 1, 0.46875, 0, 1 )
shader_param/brightness = 0.6
shader_param/alpha = 1.0

[sub_resource type="ShaderMaterial" id=15]
resource_local_to_scene = true
shader = ExtResource( 5 )
shader_param/color = Color( 1, 0.46875, 0, 1 )
shader_param/brightness = 0.6
shader_param/alpha = 1.0

[sub_resource type="ShaderMaterial" id=16]
resource_local_to_scene = true
shader = ExtResource( 5 )
shader_param/color = Color( 1, 0.46875, 0, 1 )
shader_param/brightness = 0.6
shader_param/alpha = 1.0

[node name="BaseLevel" instance=ExtResource( 1 )]
music = 1
nz_widget = false
nx_widget = false
ny_widget = false
ring_widget = false

[node name="MeshInstance" parent="CameraPivot/Camera/CameraControls/PivotWidget/Z" index="0"]
material/0 = SubResource( 1 )
material/1 = SubResource( 2 )

[node name="MeshInstance" parent="CameraPivot/Camera/CameraControls/PivotWidget/nZ" index="0"]
material/0 = SubResource( 3 )
material/1 = SubResource( 4 )

[node name="MeshInstance" parent="CameraPivot/Camera/CameraControls/PivotWidget/X" index="0"]
material/0 = SubResource( 5 )
material/1 = SubResource( 6 )

[node name="MeshInstance" parent="CameraPivot/Camera/CameraControls/PivotWidget/nX" index="0"]
material/0 = SubResource( 7 )
material/1 = SubResource( 8 )

[node name="MeshInstance" parent="CameraPivot/Camera/CameraControls/PivotWidget/Y" index="0"]
material/0 = SubResource( 9 )
material/1 = SubResource( 10 )

[node name="MeshInstance" parent="CameraPivot/Camera/CameraControls/PivotWidget/nY" index="0"]
material/0 = SubResource( 11 )
material/1 = SubResource( 12 )

[node name="MeshInstance" parent="CameraPivot/Camera/CameraControls/RotationWidget" index="0"]
material/0 = SubResource( 13 )
material/1 = SubResource( 14 )
material/2 = SubResource( 15 )
material/3 = SubResource( 16 )

[node name="MainSphere" parent="Stage" index="0"]
transform = Transform( 1, 0, 0, 0, 1, 0, 0, 0, 1, 4.48999e-07, 1, 3 )

[node name="Goal" parent="Stage" index="1"]
transform = Transform( -2.84217e-14, -1, -4.37114e-08, 1.31135e-07, -4.37114e-08, 1, -1, 2.84217e-14, 1.31135e-07, 3.98882e-09, 1, -1 )

[node name="StraightPath2" parent="Stage" index="2" instance=ExtResource( 3 )]
transform = Transform( 1, 1.31134e-07, 4.80826e-07, -4.80826e-07, -4.37114e-08, 1, 1.31134e-07, -1, -4.37113e-08, 7.54979e-07, 1, 2 )

[node name="StraightPath3" parent="Stage" index="3" instance=ExtResource( 3 )]
transform = Transform( -1, 3.49692e-07, -8.74228e-08, 3.49692e-07, 1, 1.88382e-14, 8.74228e-08, 2.75559e-14, -1, 2, -4.09297e-07, 1 )

[node name="StraightPath4" parent="Stage" index="4" instance=ExtResource( 3 )]
transform = Transform( 8.74226e-08, -1, 1.31135e-07, -3.0598e-07, 1.31135e-07, 1, -1, -8.74227e-08, -3.0598e-07, 1, 1, 1 )

[node name="StraightPath5" parent="Stage" index="5" instance=ExtResource( 3 )]
transform = Transform( 5.68434e-14, 1, 2.18557e-07, -3.0598e-07, -2.18557e-07, 1, 1, -5.68434e-14, 3.0598e-07, 1, -1, 1 )

[node name="StraightPath6" parent="Stage" index="6" instance=ExtResource( 3 )]
transform = Transform( 8.74226e-08, -1, 1.31135e-07, -3.0598e-07, 1.31135e-07, 1, -1, -8.74227e-08, -3.0598e-07, -1, 1, 0.999999 )

[node name="StraightPath7" parent="Stage" index="7" instance=ExtResource( 3 )]
transform = Transform( 5.68434e-14, 1, 2.18557e-07, -3.0598e-07, -2.18557e-07, 1, 1, -5.68434e-14, 3.0598e-07, -2.42408e-07, -1, 1 )

[node name="StraightPath8" parent="Stage" index="8" instance=ExtResource( 3 )]
transform = Transform( 5.68434e-14, 1, 2.18557e-07, -3.0598e-07, -2.18557e-07, 1, 1, -5.68434e-14, 3.0598e-07, -1, -1, 1 )

[node name="StraightPath9" parent="Stage" index="9" instance=ExtResource( 3 )]
transform = Transform( -1, 3.49692e-07, -8.74228e-08, 3.49692e-07, 1, 1.88382e-14, 8.74228e-08, 2.75559e-14, -1, -2, 2.90087e-07, 0.999999 )

[node name="StraightPath10" parent="Stage" index="10" instance=ExtResource( 3 )]
transform = Transform( -1, -1.31134e-07, -2.18557e-07, -2.18557e-07, -4.37113e-08, 1, -1.31134e-07, 1, 4.37113e-08, -2, 1, -6.1196e-07 )

[node name="StraightPath11" parent="Stage" index="11" instance=ExtResource( 3 )]
transform = Transform( -1, -1.31134e-07, -2.18557e-07, -2.18557e-07, -4.37113e-08, 1, -1.31134e-07, 1, 4.37113e-08, -2, 1, -1 )

[node name="StraightPath12" parent="Stage" index="12" instance=ExtResource( 3 )]
transform = Transform( -1, -1.31134e-07, -2.18557e-07, -2.18557e-07, -4.37113e-08, 1, -1.31134e-07, 1, 4.37113e-08, -2, 1, -2 )

[node name="StraightPath13" parent="Stage" index="13" instance=ExtResource( 3 )]
transform = Transform( -8.74226e-08, 1, 2.18557e-07, -3.93403e-07, -2.18557e-07, 1, 1, 8.74226e-08, 3.93403e-07, -0.999998, 1, -3 )

[node name="StraightPath14" parent="Stage" index="14" instance=ExtResource( 3 )]
transform = Transform( -8.74226e-08, 1, 2.18557e-07, -3.93403e-07, -2.18557e-07, 1, 1, 8.74226e-08, 3.93403e-07, 2.04646e-06, 1, -3 )

[node name="StraightPath15" parent="Stage" index="15" instance=ExtResource( 3 )]
transform = Transform( -8.74225e-08, 1, 2.18557e-07, -3.93403e-07, -2.18557e-07, 1, 1, 8.74226e-08, 3.93403e-07, 1, 1, -3 )

[node name="StraightPath16" parent="Stage" index="16" instance=ExtResource( 3 )]
transform = Transform( -1, -1.31134e-07, -2.18557e-07, -2.18557e-07, -4.37113e-08, 1, -1.31134e-07, 1, 4.37113e-08, 2, 1, -2 )

[node name="StraightPath17" parent="Stage" index="17" instance=ExtResource( 3 )]
transform = Transform( -8.74226e-08, 1, 2.18557e-07, -3.93403e-07, -2.18557e-07, 1, 1, 8.74225e-08, 3.93403e-07, 1, 1, -1 )

[node name="StraightPath18" parent="Stage" index="18" instance=ExtResource( 3 )]
transform = Transform( -8.74226e-08, 1, 2.18557e-07, -3.93403e-07, -2.18557e-07, 1, 1, 8.74225e-08, 3.93403e-07, 7.19245e-07, 1, -1 )

[node name="CurvePath" parent="Stage" index="19" instance=ExtResource( 4 )]
transform = Transform( -4.37115e-07, -1, 3.49692e-07, -1, 4.37114e-07, -2.18558e-07, 2.18558e-07, -3.49692e-07, -1, -2, 1, -3 )

[node name="CurvePath5" parent="Stage" index="20" instance=ExtResource( 4 )]
transform = Transform( -3.93404e-07, 3.93403e-07, 1, -1, 2.62268e-07, -3.93404e-07, -2.62269e-07, -1, 3.93403e-07, 2, 1, -3 )

[node name="CurvePath6" parent="Stage" index="21" instance=ExtResource( 4 )]
transform = Transform( 8.7423e-08, 1, -4.37114e-07, -1, 8.74219e-08, -2.18558e-07, -2.18558e-07, 4.37114e-07, 1, 2, 1, -1 )

[node name="CurvePath2" parent="Stage" index="22" instance=ExtResource( 4 )]
transform = Transform( 4.37112e-08, 1, 1.31135e-07, -1.74846e-07, -1.31135e-07, 1, 1, -4.37109e-08, 1.74846e-07, 2, 0.999999, 1 )

[node name="CurvePath3" parent="Stage" index="23" instance=ExtResource( 4 )]
transform = Transform( -3.93403e-07, -1.74846e-07, 1, -2.62269e-07, -1, -1.74846e-07, 1, -2.62268e-07, 3.93403e-07, 2, -1, 1 )

[node name="CurvePath4" parent="Stage" index="24" instance=ExtResource( 4 )]
transform = Transform( -5.68249e-07, -1, -2.18557e-07, 8.74234e-08, 2.18557e-07, -1, 1, -5.68248e-07, 8.74232e-08, -2, -1, 0.999999 )

[node name="TriIntersectionPath" parent="Stage" index="25" instance=ExtResource( 6 )]
transform = Transform( -1, 5.24537e-07, -5.24537e-07, 5.24537e-07, -4.37116e-08, -1, -5.24537e-07, -1, 4.37113e-08, 5.84121e-07, 1, 1 )

[node name="Tri2IntersectionPath" parent="Stage" index="26" instance=ExtResource( 12 )]
transform = Transform( -4.37114e-08, 1.74846e-07, 1, 1.74846e-07, 1, -1.74846e-07, -1, 1.74846e-07, -4.37114e-08, -2, 1, 0.999999 )

[node name="Wall" parent="Stage" index="27" instance=ExtResource( 11 )]
transform = Transform( 1, 0, 0, -4.26326e-14, 1, 0, -2.84217e-14, -7.64259e-15, 1, -1, 1, 0.999999 )

[node name="StraightPath" parent="Stage" index="28" instance=ExtResource( 13 )]
transform = Transform( 1, -4.80826e-07, 1.31134e-07, 1.31134e-07, -4.37114e-08, -1, 4.80826e-07, 1, -4.37113e-08, -7.43094e-07, 1, 3 )

[node name="Particles" parent="Props" index="0" instance=ExtResource( 9 )]

[node name="Particles2" parent="Props" index="1" instance=ExtResource( 8 )]

[node name="Particles3" parent="Props" index="2" instance=ExtResource( 7 )]

[node name="Particles4" parent="Props" index="3" instance=ExtResource( 10 )]
