[gd_scene load_steps=4 format=2]

[ext_resource path="res://assets/shader/transition_mgr.gd" type="Script" id=1]


[sub_resource type="Animation" id=1]
resource_name = "fadeIn"
tracks/0/type = "value"
tracks/0/path = NodePath("fade:color")
tracks/0/interp = 1
tracks/0/loop_wrap = true
tracks/0/imported = false
tracks/0/enabled = true
tracks/0/keys = {
"times": PoolRealArray( 0, 1 ),
"transitions": PoolRealArray( 1, 1 ),
"update": 0,
"values": [ Color( 0, 0, 0, 1 ), Color( 0, 0, 0, 0 ) ]
}
tracks/1/type = "value"
tracks/1/path = NodePath(".:_for_anim_db")
tracks/1/interp = 1
tracks/1/loop_wrap = true
tracks/1/imported = false
tracks/1/enabled = true
tracks/1/keys = {
"times": PoolRealArray( 0, 1 ),
"transitions": PoolRealArray( 1, 1 ),
"update": 0,
"values": [ 0.0, 1.0 ]
}

[sub_resource type="Animation" id=2]
tracks/0/type = "value"
tracks/0/path = NodePath("fade:color")
tracks/0/interp = 1
tracks/0/loop_wrap = true
tracks/0/imported = false
tracks/0/enabled = true
tracks/0/keys = {
"times": PoolRealArray( 0, 1 ),
"transitions": PoolRealArray( 1, 1 ),
"update": 0,
"values": [ Color( 0, 0, 0, 0 ), Color( 0, 0, 0, 1 ) ]
}
tracks/1/type = "value"
tracks/1/path = NodePath(".:_for_anim_db")
tracks/1/interp = 1
tracks/1/loop_wrap = true
tracks/1/imported = false
tracks/1/enabled = true
tracks/1/keys = {
"times": PoolRealArray( 0, 1 ),
"transitions": PoolRealArray( 1, 1 ),
"update": 0,
"values": [ 1.0, 0.0 ]
}

[node name="TransitionMgr" type="CanvasLayer"]
pause_mode = 2
layer = 3
script = ExtResource( 1 )

[node name="fade" type="Polygon2D" parent="."]
color = Color( 0, 0, 0, 0 )
polygon = PoolVector2Array( -2000, -2000, -2000, 2000, 2000, 2000, 2000, -2000 )

[node name="fadeAnimation" type="AnimationPlayer" parent="."]
anims/fadeIn = SubResource( 1 )
anims/fadeOut = SubResource( 2 )

[connection signal="animation_finished" from="fadeAnimation" to="." method="_on_fadeAnimation_animation_finished"]
