[gd_scene load_steps=2 format=2]

[ext_resource path="res://tests/teste ui/Madness.png" type="Texture" id=1]

[node name="Hit effect" type="Node2D"]

[node name="01" type="Sprite" parent="."]
position = Vector2( 960, 509 )
texture = ExtResource( 1 )
