[gd_scene load_steps=3 format=2]

[ext_resource path="res://scripts/inventory/InventoryComponent.gd" type="Script" id=1]
[ext_resource path="res://assets/sounds/SFX Casa/abrindo livro.mp3" type="AudioStream" id=2]

[node name="InventoryComponent" type="Node"]
script = ExtResource( 1 )

[node name="abrir" type="AudioStreamPlayer" parent="."]
stream = ExtResource( 2 )
