[gd_scene load_steps=5 format=2]

[ext_resource path="res://scripts/inventory/ItemSlot.gd" type="Script" id=2]
[ext_resource path="res://scripts/inventory/ItemSlotDragDrop.gd" type="Script" id=3]
[ext_resource path="res://assets/Fontes/GochiHand-Regular.ttf" type="DynamicFontData" id=4]

[sub_resource type="DynamicFont" id=2]
size = 46
use_mipmaps = true
use_filter = true
font_data = ExtResource( 4 )

[node name="ItemSlot" type="MarginContainer"]
anchor_right = 0.078
anchor_bottom = 0.139
margin_right = 0.23999
margin_bottom = -0.12001
rect_min_size = Vector2( 120, 120 )
script = ExtResource( 2 )

[node name="Background" type="ColorRect" parent="."]
margin_right = 150.0
margin_bottom = 149.0
rect_min_size = Vector2( 30, 30 )
hint_tooltip = "Tooltip"
color = Color( 1, 1, 1, 0 )
script = ExtResource( 3 )

[node name="Overlay" type="Control" parent="Background"]
anchor_right = 1.0
anchor_bottom = 1.0
margin_bottom = 2.0
mouse_filter = 2

[node name="Image" type="TextureRect" parent="Background/Overlay"]
anchor_left = -0.19
anchor_right = 1.048
anchor_bottom = 1.142
margin_left = 5.7
margin_right = -0.440002
margin_bottom = -4.544
expand = true

[node name="StackAmount" type="Label" parent="Background/Overlay"]
modulate = Color( 0, 0, 0, 1 )
self_modulate = Color( 0, 0, 0, 1 )
anchor_right = 1.11
anchor_bottom = 1.0
margin_left = 12.8326
margin_top = -3.97318
margin_right = 5.52259
margin_bottom = 11.0268
rect_scale = Vector2( 0.777812, 0.470048 )
custom_colors/font_color = Color( 0, 0, 0, 1 )
custom_fonts/font = SubResource( 2 )
text = "5"
align = 2
valign = 1
uppercase = true

[connection signal="gui_input" from="Background" to="." method="_on_gui_input_signal"]
