[gd_resource type="Theme" load_steps=2 format=2]

[sub_resource type="StyleBoxFlat" id=1]
bg_color = Color( 0.6, 0.6, 0.6, 0 )

[resource]
Button/colors/font_color = Color( 0, 0, 0, 1 )
Button/colors/font_color_disabled = Color( 0.9, 0.9, 0.9, 0.2 )
Button/colors/font_color_hover = Color( 0, 0, 0, 1 )
Button/colors/font_color_pressed = Color( 1, 1, 1, 1 )
Button/constants/hseparation = 2
Button/fonts/font = null
Button/styles/disabled = null
Button/styles/focus = SubResource( 1 )
Button/styles/hover = null
Button/styles/normal = null
Button/styles/pressed = null
