{
	"color": "#fff80909",
	"description": "",
	"display_name": "",
	"display_name_bool": false,
	"id": "character-1647266588.json",
	"mirror_portraits": false,
	"name": "Telefone",
	"nickname": "",
	"nickname_bool": false,
	"offset_x": 0,
	"offset_y": 0,
	"portraits": [
		{
			"name": "Default",
			"path": "res://assets/player/Sprite/tel1.png"
		}
	],
	"scale": 0,
	"theme": ""
}
