[gd_scene load_steps=3 format=2]

[ext_resource path="res://assets/inventory/hover.png" type="Texture" id=1]

[sub_resource type="CircleShape2D" id=1]
radius = 26.0192

[node name="Slot" type="Sprite"]
position = Vector2( 0.125, 0 )
scale = Vector2( 0.270206, 0.206345 )
texture = ExtResource( 1 )

[node name="AreaSlot" type="Area2D" parent="."]
monitoring = false

[node name="AreaSlotCollision" type="CollisionShape2D" parent="AreaSlot"]
shape = SubResource( 1 )
