[gd_scene load_steps=5 format=2]

[ext_resource path="res://Puzzle/canos/scripts/Main.gd" type="Script" id=1]
[ext_resource path="res://Puzzle/canos/fonts/Kenney/Kenney Bold.ttf" type="DynamicFontData" id=2]
[ext_resource path="res://Puzzle/canos/themes/MainTheme.tres" type="Theme" id=3]

[sub_resource type="DynamicFont" id=1]
font_data = ExtResource( 2 )

[node name="Node2D" type="Node"]
script = ExtResource( 1 )

[node name="MarginContainer" type="MarginContainer" parent="."]
anchor_right = 1.0
anchor_bottom = 1.0
theme = ExtResource( 3 )
__meta__ = {
"_edit_use_anchors_": false
}

[node name="PanelContainer" type="PanelContainer" parent="MarginContainer"]
margin_left = 20.0
margin_top = 20.0
margin_right = 1900.0
margin_bottom = 1060.0

[node name="Label" type="Label" parent="MarginContainer/PanelContainer"]
margin_left = 7.0
margin_top = 508.0
margin_right = 1873.0
margin_bottom = 532.0
custom_fonts/font = SubResource( 1 )
text = "Loading..."
align = 1
