[gd_scene load_steps=13 format=2]

[ext_resource path="res://Puzzle/canos/scripts/MainMenu.gd" type="Script" id=1]
[ext_resource path="res://Puzzle/canos/themes/MainTheme.tres" type="Theme" id=2]
[ext_resource path="res://Puzzle/canos/scenes/entities/special/special_End.tscn" type="PackedScene" id=3]
[ext_resource path="res://Puzzle/canos/scenes/entities/paths/path_Bottom_Right.tscn" type="PackedScene" id=4]
[ext_resource path="res://Puzzle/canos/scenes/entities/paths/path_Up_Down.tscn" type="PackedScene" id=5]
[ext_resource path="res://Puzzle/canos/scenes/entities/paths/path_Left_Right.tscn" type="PackedScene" id=6]
[ext_resource path="res://Puzzle/canos/scenes/entities/paths/path_Bottom_Left.tscn" type="PackedScene" id=7]
[ext_resource path="res://Puzzle/canos/scenes/entities/special/special_Blank.tscn" type="PackedScene" id=8]
[ext_resource path="res://Puzzle/canos/scenes/entities/special/special_Start.tscn" type="PackedScene" id=9]
[ext_resource path="res://Puzzle/canos/themes/RobotoTheme.tres" type="Theme" id=10]
[ext_resource path="res://assets/Fontes/GochiHand-Regular.ttf" type="DynamicFontData" id=11]

[sub_resource type="DynamicFont" id=1]
size = 47
font_data = ExtResource( 11 )

[node name="MainMenuControl" type="Control"]
theme = ExtResource( 2 )
script = ExtResource( 1 )

[node name="MarginContainer" type="MarginContainer" parent="."]
anchor_right = 1.0
anchor_bottom = 1.0
margin_right = 1880.0
margin_bottom = 1040.0
__meta__ = {
"_edit_use_anchors_": false
}

[node name="HBoxContainer" type="HBoxContainer" parent="MarginContainer"]
margin_left = 20.0
margin_top = 20.0
margin_right = 1860.0
margin_bottom = 1020.0

[node name="VBoxContainer" type="VBoxContainer" parent="MarginContainer/HBoxContainer"]
margin_right = 339.0
margin_bottom = 1000.0
custom_constants/separation = 10

[node name="TitleLabel" type="Label" parent="MarginContainer/HBoxContainer/VBoxContainer"]
margin_right = 339.0
margin_bottom = 57.0
custom_fonts/font = SubResource( 1 )
text = "Path Commander"

[node name="Tutorial_btn" type="Button" parent="MarginContainer/HBoxContainer/VBoxContainer"]
margin_top = 67.0
margin_right = 339.0
margin_bottom = 130.0
custom_fonts/font = SubResource( 1 )
text = "Tutorial"

[node name="Survival_btn" type="Button" parent="MarginContainer/HBoxContainer/VBoxContainer"]
margin_top = 140.0
margin_right = 339.0
margin_bottom = 203.0
custom_fonts/font = SubResource( 1 )
text = "Survival"

[node name="Options_btn" type="Button" parent="MarginContainer/HBoxContainer/VBoxContainer"]
margin_top = 213.0
margin_right = 339.0
margin_bottom = 276.0
custom_fonts/font = SubResource( 1 )
text = "Options"

[node name="Credits_btn" type="Button" parent="MarginContainer/HBoxContainer/VBoxContainer"]
margin_top = 286.0
margin_right = 339.0
margin_bottom = 349.0
custom_fonts/font = SubResource( 1 )
text = "Credits"

[node name="Exit_btn" type="Button" parent="MarginContainer/HBoxContainer/VBoxContainer"]
margin_top = 359.0
margin_right = 339.0
margin_bottom = 422.0
custom_fonts/font = SubResource( 1 )
text = "Exit"

[node name="Version" type="Label" parent="MarginContainer/HBoxContainer/VBoxContainer"]
margin_top = 943.0
margin_right = 339.0
margin_bottom = 1000.0
size_flags_vertical = 14
theme = ExtResource( 10 )
custom_fonts/font = SubResource( 1 )
text = "v0.0.8"

[node name="Spacer" type="Control" parent="MarginContainer/HBoxContainer"]
margin_left = 343.0
margin_right = 1089.0
margin_bottom = 1000.0
size_flags_horizontal = 3
size_flags_vertical = 3

[node name="BoardContainer" type="GridContainer" parent="MarginContainer/HBoxContainer"]
margin_left = 1093.0
margin_right = 1840.0
margin_bottom = 1000.0
mouse_filter = 2
size_flags_horizontal = 3
size_flags_vertical = 3
columns = 6

[node name="Blank" parent="MarginContainer/HBoxContainer/BoardContainer" instance=ExtResource( 8 )]
margin_left = 0.0
margin_top = 0.0
margin_right = 64.0
margin_bottom = 64.0
mouse_filter = 0

[node name="Bottom_Left" parent="MarginContainer/HBoxContainer/BoardContainer" instance=ExtResource( 7 )]
margin_left = 68.0
margin_top = 0.0
margin_right = 132.0
margin_bottom = 64.0
mouse_filter = 0

[node name="Left_Right" parent="MarginContainer/HBoxContainer/BoardContainer" instance=ExtResource( 6 )]
margin_left = 136.0
margin_top = 0.0
margin_right = 200.0
margin_bottom = 64.0
mouse_filter = 0

[node name="Up_Down" parent="MarginContainer/HBoxContainer/BoardContainer" instance=ExtResource( 5 )]
margin_left = 204.0
margin_top = 0.0
margin_right = 268.0
margin_bottom = 64.0
mouse_filter = 0

[node name="Bottom_Right" parent="MarginContainer/HBoxContainer/BoardContainer" instance=ExtResource( 4 )]
margin_left = 272.0
margin_top = 0.0
margin_right = 336.0
margin_bottom = 64.0
mouse_filter = 0

[node name="Up_Down2" parent="MarginContainer/HBoxContainer/BoardContainer" instance=ExtResource( 5 )]
margin_left = 340.0
margin_top = 0.0
margin_right = 404.0
margin_bottom = 64.0
mouse_filter = 0

[node name="Start" parent="MarginContainer/HBoxContainer/BoardContainer" instance=ExtResource( 9 )]
margin_left = 0.0
margin_top = 68.0
margin_right = 64.0
margin_bottom = 132.0
mouse_filter = 0

[node name="Up_Down3" parent="MarginContainer/HBoxContainer/BoardContainer" instance=ExtResource( 5 )]
margin_left = 68.0
margin_top = 68.0
margin_right = 132.0
margin_bottom = 132.0
mouse_filter = 0

[node name="Left_Right2" parent="MarginContainer/HBoxContainer/BoardContainer" instance=ExtResource( 6 )]
margin_left = 136.0
margin_top = 68.0
margin_right = 200.0
margin_bottom = 132.0
mouse_filter = 0

[node name="Bottom_Left6" parent="MarginContainer/HBoxContainer/BoardContainer" instance=ExtResource( 7 )]
margin_left = 204.0
margin_top = 68.0
margin_right = 268.0
margin_bottom = 132.0
mouse_filter = 0

[node name="Blank2" parent="MarginContainer/HBoxContainer/BoardContainer" instance=ExtResource( 8 )]
margin_left = 272.0
margin_top = 68.0
margin_right = 336.0
margin_bottom = 132.0
mouse_filter = 0

[node name="Blank3" parent="MarginContainer/HBoxContainer/BoardContainer" instance=ExtResource( 8 )]
margin_left = 340.0
margin_top = 68.0
margin_right = 404.0
margin_bottom = 132.0
mouse_filter = 0

[node name="Blank4" parent="MarginContainer/HBoxContainer/BoardContainer" instance=ExtResource( 8 )]
margin_left = 0.0
margin_top = 136.0
margin_right = 64.0
margin_bottom = 200.0
mouse_filter = 0

[node name="Bottom_Left7" parent="MarginContainer/HBoxContainer/BoardContainer" instance=ExtResource( 7 )]
margin_left = 68.0
margin_top = 136.0
margin_right = 132.0
margin_bottom = 200.0
mouse_filter = 0

[node name="Left_Right4" parent="MarginContainer/HBoxContainer/BoardContainer" instance=ExtResource( 6 )]
margin_left = 136.0
margin_top = 136.0
margin_right = 200.0
margin_bottom = 200.0
mouse_filter = 0

[node name="Bottom_Left2" parent="MarginContainer/HBoxContainer/BoardContainer" instance=ExtResource( 7 )]
margin_left = 204.0
margin_top = 136.0
margin_right = 268.0
margin_bottom = 200.0
mouse_filter = 0

[node name="Left_Right6" parent="MarginContainer/HBoxContainer/BoardContainer" instance=ExtResource( 6 )]
margin_left = 272.0
margin_top = 136.0
margin_right = 336.0
margin_bottom = 200.0
mouse_filter = 0

[node name="End" parent="MarginContainer/HBoxContainer/BoardContainer" instance=ExtResource( 3 )]
margin_left = 340.0
margin_top = 136.0
margin_right = 404.0
margin_bottom = 200.0
mouse_filter = 0

[node name="Bottom_Left3" parent="MarginContainer/HBoxContainer/BoardContainer" instance=ExtResource( 7 )]
margin_left = 0.0
margin_top = 204.0
margin_right = 64.0
margin_bottom = 268.0
mouse_filter = 0

[node name="Bottom_Right2" parent="MarginContainer/HBoxContainer/BoardContainer" instance=ExtResource( 4 )]
margin_left = 68.0
margin_top = 204.0
margin_right = 132.0
margin_bottom = 268.0
mouse_filter = 0

[node name="Left_Right7" parent="MarginContainer/HBoxContainer/BoardContainer" instance=ExtResource( 6 )]
margin_left = 136.0
margin_top = 204.0
margin_right = 200.0
margin_bottom = 268.0
mouse_filter = 0

[node name="Left_Right8" parent="MarginContainer/HBoxContainer/BoardContainer" instance=ExtResource( 6 )]
margin_left = 204.0
margin_top = 204.0
margin_right = 268.0
margin_bottom = 268.0
mouse_filter = 0

[node name="Bottom_Right3" parent="MarginContainer/HBoxContainer/BoardContainer" instance=ExtResource( 4 )]
margin_left = 272.0
margin_top = 204.0
margin_right = 336.0
margin_bottom = 268.0
mouse_filter = 0

[node name="Bottom_Right4" parent="MarginContainer/HBoxContainer/BoardContainer" instance=ExtResource( 4 )]
margin_left = 340.0
margin_top = 204.0
margin_right = 404.0
margin_bottom = 268.0
mouse_filter = 0

[node name="Blank5" parent="MarginContainer/HBoxContainer/BoardContainer" instance=ExtResource( 8 )]
margin_left = 0.0
margin_top = 272.0
margin_right = 64.0
margin_bottom = 336.0
mouse_filter = 0

[node name="Blank6" parent="MarginContainer/HBoxContainer/BoardContainer" instance=ExtResource( 8 )]
margin_left = 68.0
margin_top = 272.0
margin_right = 132.0
margin_bottom = 336.0
mouse_filter = 0

[node name="Up_Down4" parent="MarginContainer/HBoxContainer/BoardContainer" instance=ExtResource( 5 )]
margin_left = 136.0
margin_top = 272.0
margin_right = 200.0
margin_bottom = 336.0
mouse_filter = 0

[node name="Blank7" parent="MarginContainer/HBoxContainer/BoardContainer" instance=ExtResource( 8 )]
margin_left = 204.0
margin_top = 272.0
margin_right = 268.0
margin_bottom = 336.0
mouse_filter = 0

[node name="Up_Down5" parent="MarginContainer/HBoxContainer/BoardContainer" instance=ExtResource( 5 )]
margin_left = 272.0
margin_top = 272.0
margin_right = 336.0
margin_bottom = 336.0
mouse_filter = 0

[node name="Bottom_Right5" parent="MarginContainer/HBoxContainer/BoardContainer" instance=ExtResource( 4 )]
margin_left = 340.0
margin_top = 272.0
margin_right = 404.0
margin_bottom = 336.0
mouse_filter = 0

[node name="Bottom_Left4" parent="MarginContainer/HBoxContainer/BoardContainer" instance=ExtResource( 7 )]
margin_left = 0.0
margin_top = 340.0
margin_right = 64.0
margin_bottom = 404.0
mouse_filter = 0

[node name="Bottom_Right6" parent="MarginContainer/HBoxContainer/BoardContainer" instance=ExtResource( 4 )]
margin_left = 68.0
margin_top = 340.0
margin_right = 132.0
margin_bottom = 404.0
mouse_filter = 0

[node name="Blank8" parent="MarginContainer/HBoxContainer/BoardContainer" instance=ExtResource( 8 )]
margin_left = 136.0
margin_top = 340.0
margin_right = 200.0
margin_bottom = 404.0
mouse_filter = 0

[node name="Left_Right9" parent="MarginContainer/HBoxContainer/BoardContainer" instance=ExtResource( 6 )]
margin_left = 204.0
margin_top = 340.0
margin_right = 268.0
margin_bottom = 404.0
mouse_filter = 0

[node name="Bottom_Right7" parent="MarginContainer/HBoxContainer/BoardContainer" instance=ExtResource( 4 )]
margin_left = 272.0
margin_top = 340.0
margin_right = 336.0
margin_bottom = 404.0
mouse_filter = 0

[node name="Bottom_Right8" parent="MarginContainer/HBoxContainer/BoardContainer" instance=ExtResource( 4 )]
margin_left = 340.0
margin_top = 340.0
margin_right = 404.0
margin_bottom = 404.0
mouse_filter = 0

[node name="Bottom_Right9" parent="MarginContainer/HBoxContainer/BoardContainer" instance=ExtResource( 4 )]
margin_left = 0.0
margin_top = 408.0
margin_right = 64.0
margin_bottom = 472.0
mouse_filter = 0

[node name="Left_Right10" parent="MarginContainer/HBoxContainer/BoardContainer" instance=ExtResource( 6 )]
margin_left = 68.0
margin_top = 408.0
margin_right = 132.0
margin_bottom = 472.0
mouse_filter = 0

[node name="Blank9" parent="MarginContainer/HBoxContainer/BoardContainer" instance=ExtResource( 8 )]
margin_left = 136.0
margin_top = 408.0
margin_right = 200.0
margin_bottom = 472.0
mouse_filter = 0

[node name="Bottom_Right10" parent="MarginContainer/HBoxContainer/BoardContainer" instance=ExtResource( 4 )]
margin_left = 204.0
margin_top = 408.0
margin_right = 268.0
margin_bottom = 472.0
mouse_filter = 0

[node name="Left_Right11" parent="MarginContainer/HBoxContainer/BoardContainer" instance=ExtResource( 6 )]
margin_left = 272.0
margin_top = 408.0
margin_right = 336.0
margin_bottom = 472.0
mouse_filter = 0

[node name="Bottom_Left5" parent="MarginContainer/HBoxContainer/BoardContainer" instance=ExtResource( 7 )]
margin_left = 340.0
margin_top = 408.0
margin_right = 404.0
margin_bottom = 472.0
mouse_filter = 0

[node name="Timer" type="Timer" parent="."]
autostart = true

[connection signal="pressed" from="MarginContainer/HBoxContainer/VBoxContainer/Tutorial_btn" to="." method="_on_Tutorial_btn_pressed"]
[connection signal="pressed" from="MarginContainer/HBoxContainer/VBoxContainer/Survival_btn" to="." method="_on_Survival_btn_pressed"]
[connection signal="pressed" from="MarginContainer/HBoxContainer/VBoxContainer/Options_btn" to="." method="_on_Options_btn_pressed"]
[connection signal="pressed" from="MarginContainer/HBoxContainer/VBoxContainer/Credits_btn" to="." method="_on_Credits_btn_pressed"]
[connection signal="pressed" from="MarginContainer/HBoxContainer/VBoxContainer/Exit_btn" to="." method="_on_Exit_btn_pressed"]
[connection signal="timeout" from="Timer" to="." method="_on_Timer_timeout"]
