[gd_scene load_steps=5 format=2]

[ext_resource path="res://Puzzle/canos/scenes/entities/powerups/Powerup.tscn" type="PackedScene" id=1]
[ext_resource path="res://Puzzle/canos/images/powerups/yellow_diamond.png" type="Texture" id=2]
[ext_resource path="res://Puzzle/canos/images/powerups/red_diamond.png" type="Texture" id=3]
[ext_resource path="res://Puzzle/canos/scripts/entities/powerup_ExtraTime.gd" type="Script" id=4]

[node name="ExtraTime" instance=ExtResource( 1 )]

[node name="TextureButton" type="TextureButton" parent="." index="0"]
anchor_left = 0.5
anchor_top = 0.5
anchor_right = 0.5
anchor_bottom = 0.5
margin_left = -32.0
margin_top = -32.0
margin_right = -32.0
margin_bottom = -32.0
rect_pivot_offset = Vector2( 32, 32 )
texture_normal = ExtResource( 2 )
texture_pressed = ExtResource( 3 )
script = ExtResource( 4 )
__meta__ = {
"_edit_use_anchors_": false
}
