[gd_scene load_steps=4 format=2]

[ext_resource path="res://Puzzle/caminhos/source/assets/materials/goal-material.tres" type="Material" id=1]

[sub_resource type="SphereMesh" id=1]
radius = 0.5
height = 1.0

[sub_resource type="SphereShape" id=2]
radius = 0.3

[node name="Goal" type="Area" groups=["goal"]]
collision_layer = 4

[node name="MeshInstance" type="MeshInstance" parent="."]
mesh = SubResource( 1 )
material/0 = ExtResource( 1 )

[node name="CollisionShape" type="CollisionShape" parent="."]
shape = SubResource( 2 )
