[gd_scene load_steps=3 format=2]

[ext_resource path="res://scripts/management/WorldEnvironment.gd" type="Script" id=1]

[sub_resource type="Environment" id=1]
fog_color = Color( 0.501961, 0.6, 0.701961, 1 )
glow_enabled = true
adjustment_enabled = true

[node name="WorldEnvironment" type="WorldEnvironment"]
environment = SubResource( 1 )
script = ExtResource( 1 )
