[gd_scene load_steps=5 format=2]

[ext_resource path="res://Puzzle/canos/images/paths/bottom_right.png" type="Texture" id=1]
[ext_resource path="res://Puzzle/canos/scenes/entities/paths/Path.tscn" type="PackedScene" id=2]
[ext_resource path="res://Puzzle/canos/scripts/entities/path_Bottom_Right.gd" type="Script" id=3]
[ext_resource path="res://Puzzle/canos/images/paths/bottom_right_pressed.png" type="Texture" id=4]

[node name="Bottom_Right" instance=ExtResource( 2 )]

[node name="TextureButton" type="TextureButton" parent="." index="0"]
anchor_left = 0.5
anchor_top = 0.5
anchor_right = 0.5
anchor_bottom = 0.5
margin_left = -32.0
margin_top = -32.0
margin_right = 32.0
margin_bottom = 32.0
rect_pivot_offset = Vector2( 32, 32 )
texture_normal = ExtResource( 1 )
texture_pressed = ExtResource( 4 )
script = ExtResource( 3 )
__meta__ = {
"_edit_use_anchors_": false
}
