[gd_scene load_steps=12 format=2]

[ext_resource path="res://tests/assets/fonts/roboto_b_36.tres" type="DynamicFont" id=1]
[ext_resource path="res://tests/assets/themes/custom_theme.tres" type="Theme" id=2]
[ext_resource path="res://Puzzle/src/scenes/menu_screen/menu_screen.gd" type="Script" id=3]
[ext_resource path="res://tests/assets/fonts/roboto_r_16.tres" type="DynamicFont" id=4]
[ext_resource path="res://tests/assets/icons/website.png" type="Texture" id=5]
[ext_resource path="res://tests/assets/icons/discord.png" type="Texture" id=6]
[ext_resource path="res://tests/assets/icons/discord_hover.png" type="Texture" id=7]
[ext_resource path="res://tests/assets/icons/website_hover.png" type="Texture" id=8]


[sub_resource type="StyleBoxFlat" id=1]
bg_color = Color( 0.2, 0.231373, 0.309804, 1 )

[sub_resource type="StyleBoxFlat" id=2]
expand_margin_left = 5.0
expand_margin_right = 5.0
expand_margin_top = 5.0
expand_margin_bottom = 5.0

[sub_resource type="Animation" id=3]
length = 2.0
step = 0.001
tracks/0/type = "value"
tracks/0/path = NodePath("Label:rect_position")
tracks/0/interp = 2
tracks/0/loop_wrap = true
tracks/0/imported = false
tracks/0/enabled = true
tracks/0/keys = {
"times": PoolRealArray( 0, 0.839 ),
"transitions": PoolRealArray( 1, 1 ),
"update": 0,
"values": [ Vector2( 280, 0 ), Vector2( 0, 0 ) ]
}
tracks/1/type = "value"
tracks/1/path = NodePath("Button:rect_position")
tracks/1/interp = 2
tracks/1/loop_wrap = true
tracks/1/imported = false
tracks/1/enabled = true
tracks/1/keys = {
"times": PoolRealArray( 0, 0.639, 1.079 ),
"transitions": PoolRealArray( 1, 1, 1 ),
"update": 0,
"values": [ Vector2( 96, 440 ), Vector2( 96, 440 ), Vector2( 96, 240 ) ]
}
tracks/2/type = "value"
tracks/2/path = NodePath("WebsiteButton:rect_position")
tracks/2/interp = 2
tracks/2/loop_wrap = true
tracks/2/imported = false
tracks/2/enabled = true
tracks/2/keys = {
"times": PoolRealArray( 0, 0.43, 0.93 ),
"transitions": PoolRealArray( 1, 1, 1 ),
"update": 0,
"values": [ Vector2( -54.443, 382.33 ), Vector2( -54.443, 382.33 ), Vector2( 45.5567, 382.33 ) ]
}
tracks/3/type = "value"
tracks/3/path = NodePath("DiscordButton:rect_position")
tracks/3/interp = 2
tracks/3/loop_wrap = true
tracks/3/imported = false
tracks/3/enabled = true
tracks/3/keys = {
"times": PoolRealArray( 0, 0.64, 1.15 ),
"transitions": PoolRealArray( 1, 1, 1 ),
"update": 0,
"values": [ Vector2( -95.443, 382.33 ), Vector2( -95.443, 382.33 ), Vector2( 4.55673, 382.33 ) ]
}
tracks/4/type = "value"
tracks/4/path = NodePath("Label2:rect_position")
tracks/4/interp = 2
tracks/4/loop_wrap = true
tracks/4/imported = false
tracks/4/enabled = true
tracks/4/keys = {
"times": PoolRealArray( 0.011, 0.81, 1.151 ),
"transitions": PoolRealArray( 1, 1, 1 ),
"update": 0,
"values": [ Vector2( 350, 389 ), Vector2( 350, 389 ), Vector2( 298, 389 ) ]
}

[node name="MenuScreen" type="Control"]
anchor_right = 1.0
anchor_bottom = 1.0
theme = ExtResource( 2 )
script = ExtResource( 3 )
__meta__ = {
"_edit_use_anchors_": false
}

[node name="Panel" type="Panel" parent="."]
anchor_right = 1.0
anchor_bottom = 1.0
custom_styles/panel = SubResource( 1 )
__meta__ = {
"_edit_use_anchors_": false
}

[node name="Label" type="Label" parent="."]
anchor_right = 1.0
anchor_bottom = 0.5
margin_right = 0.000183105
custom_fonts/font = ExtResource( 1 )
text = "Slide Puzzle"
align = 1
valign = 1
__meta__ = {
"_edit_use_anchors_": false
}

[node name="Label2" type="Label" parent="."]
anchor_left = 1.0
anchor_top = 1.0
anchor_right = 1.0
anchor_bottom = 1.0
margin_left = -38.0
margin_top = -21.0
margin_right = -4.0
margin_bottom = -2.0
custom_fonts/font = ExtResource( 4 )
text = "v.1.0"
__meta__ = {
"_edit_use_anchors_": false
}

[node name="Button" type="Button" parent="."]
anchor_top = 0.397
anchor_right = 1.0
anchor_bottom = 0.604
margin_left = 96.0
margin_top = 77.23
margin_right = -96.0
margin_bottom = 44.1994
custom_styles/hover = SubResource( 2 )
text = "Play"
__meta__ = {
"_edit_use_anchors_": false
}

[node name="AnimationPlayer" type="AnimationPlayer" parent="."]
anims/menu_in = SubResource( 3 )

[node name="DiscordButton" type="TextureButton" parent="."]
anchor_top = 1.0
anchor_bottom = 1.0
margin_left = 4.55673
margin_top = -27.6702
margin_right = 28.5567
margin_bottom = -3.67017
texture_normal = ExtResource( 6 )
texture_hover = ExtResource( 7 )
expand = true
stretch_mode = 4
__meta__ = {
"_edit_use_anchors_": false
}

[node name="WebsiteButton" type="TextureButton" parent="."]
anchor_top = 1.0
anchor_bottom = 1.0
margin_left = 45.5567
margin_top = -27.6702
margin_right = 69.5567
margin_bottom = -3.67017
texture_normal = ExtResource( 5 )
texture_hover = ExtResource( 8 )
expand = true
__meta__ = {
"_edit_use_anchors_": false
}

[connection signal="pressed" from="Button" to="." method="_on_Button_pressed"]
[connection signal="pressed" from="DiscordButton" to="." method="_on_DiscordButton_pressed"]
[connection signal="pressed" from="WebsiteButton" to="." method="_on_WebsiteButton_pressed"]
